…
A nice thing about the `read_csv()` function is that it by default loads the data into a `tibble` (the `tidyverse` version of a data frame). This tidy version of a dataframe has a nifty functionality where if you print a tibble, rather than displaying the entire dataframe (as in base `R`), it displays enough columns and rows that fits into your console (maximum of 10 rows), any additional columns are displayed in a list below this 'preview'. Furthermore, the preview will display extra information about the dataframe (e.g. total number rows) and each column type (e.g. whether a column has numeric or character data).

We can try this now here on each tibble separately.

``` r
data_pca
```

    ## # A tibble: 1,466 x 6
    ##    Individual      PC1     PC2     PC3    PC4 Population        
    ##    <chr>         <dbl>   <dbl>   <dbl>  <dbl> <chr>             
    ##  1 BOO001     -0.0052  -0.0166 -0.0032 0.0119 BolshoyOleniOstrov
    ##  2 BOO002     -0.00480 -0.0159 -0.004  0.007  BolshoyOleniOstrov
    ##  3 BOO003     -0.00480 -0.0164 -0.0042 0.0073 BolshoyOleniOstrov
    ##  4 BOO004     -0.005   -0.0152 -0.0037 0.0089 BolshoyOleniOstrov
    ##  5 BOO005     -0.0049  -0.0157 -0.0044 0.0061 BolshoyOleniOstrov
    ##  6 BOO006     -0.0097  -0.0174 -0.003  0.0171 BolshoyOleniOstrov
    ##  7 CHV001      0.0052  -0.0104 -0.005  0.0073 ChalmnyVarre      
    ##  8 CHV002      0.00480 -0.0106 -0.005  0.0053 ChalmnyVarre      
    ##  9 JK1963     -0.0052  -0.0098 -0.0032 0.0065 JK1963            
    ## 10 JK1967     -0.0038  -0.0148 -0.0039 0.0022 JK1967            
    ## # … with 1,456 more rows

``` r
data_meta
```

    ## # A tibble: 147 x 3
    ##    Population         colorNr symbolNr
    ##    <chr>              <chr>      <dbl>
    ##  1 BolshoyOleniOstrov black          0
    ##  2 BolshoyOleniOstrov black          1
    ##  3 BolshoyOleniOstrov black          2
    ##  4 BolshoyOleniOstrov black          3
    ##  5 BolshoyOleniOstrov black          4
    ##  6 BolshoyOleniOstrov black          5
    ##  7 ChalmnyVarre       black          6
    ##  8 ChalmnyVarre       black          7
    ##  9 JK1963             black          8
    ## 10 JK1967             black          9
    ## # … with 137 more rows
…
In the previous section an important observation in the two tibbles is that there is a common column name: 'Population'. When you want to apply the same workflow in this notebook for your own data, you must make sure you have a similar common column (with the same formatting!).

The reason why having this common column is important is because we join the two tables together. The `left_join()` function from the `dplyr` package does this for us. It searches for common column names betweens the two, and adds the rows from the second file to the first, when the population name in the column from the first table is the same in the column in the second table.

> If you have multiple rows in your first tibble with the same population name, `left_join()` will duplicate the corresponding row in the second tibble in the sense it'll add the same information to every corresponding row in the first tibble.

Again we can check this happened correctly by printing the variable name. We should now see columns from both tibbles in the new tibble named `data_combined`.

``` r
data_combined <- left_join(data_pca, data_meta) %>% print()
```

    ## Joining, by = "Population"

    ## # A tibble: 1,500 x 8
    ##    Individual      PC1     PC2     PC3    PC4 Population   colorNr symbolNr
    ##    <chr>         <dbl>   <dbl>   <dbl>  <dbl> <chr>        <chr>      <dbl>
    ##  1 BOO001     -0.0052  -0.0166 -0.0032 0.0119 BolshoyOlen… black          0
    ##  2 BOO001     -0.0052  -0.0166 -0.0032 0.0119 BolshoyOlen… black          1
    ##  3 BOO001     -0.0052  -0.0166 -0.0032 0.0119 BolshoyOlen… black          2
    ##  4 BOO001     -0.0052  -0.0166 -0.0032 0.0119 BolshoyOlen… black          3
    ##  5 BOO001     -0.0052  -0.0166 -0.0032 0.0119 BolshoyOlen… black          4
    ##  6 BOO001     -0.0052  -0.0166 -0.0032 0.0119 BolshoyOlen… black          5
    ##  7 BOO002     -0.00480 -0.0159 -0.004  0.007  BolshoyOlen… black          0
    ##  8 BOO002     -0.00480 -0.0159 -0.004  0.007  BolshoyOlen… black          1
    ##  9 BOO002     -0.00480 -0.0159 -0.004  0.007  BolshoyOlen… black          2
    ## 10 BOO002     -0.00480 -0.0159 -0.004  0.007  BolshoyOlen… black          3
    ## # … with 1,490 more rows
…
To hard code this we can convert the 'Population' column of our data from a *character* to *factor*. A factor is an object which allows you to hardcode the ordering of that list other than alphabetical order by setting your own hierarchy.

As our loaded data is already in the order we want to plot (based on population similarity), we can use a nifty function from the `forcats` package called `as_factor()` to generate our hierarchy based on the order row order that the Population column is already in.

> Note that if your two data files do not have the same order in the Population column, the `left_join()` function we applied above will take the first tibble's (or left tibble) column order as precendence over the second! Make sure both are in the same order, or try `right_join()` instead.

Again, using the tibble 'preview' functionality, we can check that the Population column type has changed from character (`chr`) to factor (`fctr`).

``` r
data_combined <- data_combined %>%
  mutate(Population = as_factor(Population)) %>%
  print()
```

    ## # A tibble: 1,500 x 8
    ##    Individual      PC1     PC2     PC3    PC4 Population   colorNr symbolNr
    ##    <chr>         <dbl>   <dbl>   <dbl>  <dbl> <fct>        <chr>      <dbl>
    ##  1 BOO001     -0.0052  -0.0166 -0.0032 0.0119 BolshoyOlen… black          0
    ##  2 BOO001     -0.0052  -0.0166 -0.0032 0.0119 BolshoyOlen… black          1
    ##  3 BOO001     -0.0052  -0.0166 -0.0032 0.0119 BolshoyOlen… black          2
    ##  4 BOO001     -0.0052  -0.0166 -0.0032 0.0119 BolshoyOlen… black          3
    ##  5 BOO001     -0.0052  -0.0166 -0.0032 0.0119 BolshoyOlen… black          4
    ##  6 BOO001     -0.0052  -0.0166 -0.0032 0.0119 BolshoyOlen… black          5
    ##  7 BOO002     -0.00480 -0.0159 -0.004  0.007  BolshoyOlen… black          0
    ##  8 BOO002     -0.00480 -0.0159 -0.004  0.007  BolshoyOlen… black          1
    ##  9 BOO002     -0.00480 -0.0159 -0.004  0.007  BolshoyOlen… black          2
    ## 10 BOO002     -0.00480 -0.0159 -0.004  0.007  BolshoyOlen… black          3
    ## # … with 1,490 more rows
…
